{
    "scan": {
	"loops": [
	    {
		"config": {
		    "trig_count": 1,
		    "trig_frequency": 10000,
		    "trig_time": 0,
		    "l0_latency": 21,
		    "verbose": false,
		    "extTrigger": false,
		    "noInject": false
		},
		"loopAction": "StarTriggerLoop"
	    },
	    {
		"config": {},
		"loopAction": "StarRegDump"
	    },
	    {
		"config": {
		    "total_iteration_time_us": 5000000,
		    "triggersLostTolerance": 0,
		    "n_consecutive_rx_reads_before_processing": 1,
		    "average_data_processing_time_us": 10
		},
		"loopAction": "StdDataLoop"
	    },
	    {
		"config": {},
		"loopAction": "StdDataLoop"
	    }
	],
	"name": "MyTest",
	"prescan": {
	    "ABCs_MASKHPR": 1,
            "ABCs_STOPHPR": 1,
            "HCC_MASKHPR": 1,
            "HCC_STOPHPR": 1,
	    "HCC_BCIDRSTDELAY": 16,
            "ABCs_BCAL": 114,
	    "ABCs_TM": 3,
	    "ABCs_PR_ENABLE":      1,
	    "ABCs_LP_ENABLE":      1,
            "ABCs_DETMODE": 0,
            "ABCs_CALPULSE_ENABLE":    1,
            "ABCs_CALPULSE_POLARITY":  0,
            "ABCs_CURRDRIV": 4,
            "ABCs_STR_DEL_R": 3
    }
  }
}
